^E:\MATERI KULIAH\ALGORITMA DAN PEMROGRAMAN\C++\SFML TEST 2\SFML TEST 2\TEST.CPP
/c /Zi /nologo /W3 /WX- /O2 /Oi /Oy- /GL /D WIN32 /D NDEBUG /D _CONSOLE /D _UNICODE /D UNICODE /Gm- /EHsc /MD /GS /Gy /fp:precise /Zc:wchar_t /Zc:forScope /Fo"Release\\" /Fd"Release\vc100.pdb" /Gd /TP /analyze- /errorReport:prompt E:\MATERI KULIAH\ALGORITMA DAN PEMROGRAMAN\C++\SFML TEST 2\SFML TEST 2\TEST.CPP
^D:\GITLAB\BOULDERS\SFML TEST 2\TEST.CPP
/c /Zi /nologo /W3 /WX- /O2 /Oi /Oy- /GL /D WIN32 /D NDEBUG /D _CONSOLE /D _UNICODE /D UNICODE /Gm- /EHsc /MD /GS /Gy /fp:precise /Zc:wchar_t /Zc:forScope /Fo"Release\\" /Fd"Release\vc100.pdb" /Gd /TP /analyze- /errorReport:prompt D:\GITLAB\BOULDERS\SFML TEST 2\TEST.CPP
^D:\GITLAB\SOKOBAN GAME SFML\SFML TEST 2\TEST.CPP
/c /Zi /nologo /W3 /WX- /O2 /Oi /Oy- /GL /D WIN32 /D NDEBUG /D _CONSOLE /D _UNICODE /D UNICODE /Gm- /EHsc /MD /GS /Gy /fp:precise /Zc:wchar_t /Zc:forScope /Fo"Release\\" /Fd"Release\vc100.pdb" /Gd /TP /analyze- /errorReport:prompt D:\GITLAB\SOKOBAN GAME SFML\SFML TEST 2\TEST.CPP
