^E:\MATERI KULIAH\ALGORITMA DAN PEMROGRAMAN\C++\SFML TEST 2\SFML TEST 2\RELEASE\TEST.OBJ
/ERRORREPORT:PROMPT /OUT:"E:\Materi Kuliah\Algoritma dan Pemrograman\C++\SFML Test 2\Release\SFML Test 2.exe" /INCREMENTAL:NO /NOLOGO "sfml-graphics.lib" "sfml-window.lib" "sfml-system.lib" kernel32.lib user32.lib gdi32.lib winspool.lib comdlg32.lib advapi32.lib shell32.lib ole32.lib oleaut32.lib uuid.lib odbc32.lib odbccp32.lib /MANIFEST /ManifestFile:"Release\SFML Test 2.exe.intermediate.manifest" /MANIFESTUAC:"level='asInvoker' uiAccess='false'" /DEBUG /PDB:"E:\Materi Kuliah\Algoritma dan Pemrograman\C++\SFML Test 2\Release\SFML Test 2.pdb" /SUBSYSTEM:CONSOLE /OPT:REF /OPT:ICF /LTCG /TLBID:1 /DYNAMICBASE /NXCOMPAT /IMPLIB:"E:\Materi Kuliah\Algoritma dan Pemrograman\C++\SFML Test 2\Release\SFML Test 2.lib" /MACHINE:X86 Release\Test.obj
^D:\GITLAB\BOULDERS\SFML TEST 2\RELEASE\TEST.OBJ
/ERRORREPORT:PROMPT /OUT:"D:\GitLab\Boulders\Release\SFML Test 2.exe" /INCREMENTAL:NO /NOLOGO "sfml-graphics.lib" "sfml-window.lib" "sfml-system.lib" kernel32.lib user32.lib gdi32.lib winspool.lib comdlg32.lib advapi32.lib shell32.lib ole32.lib oleaut32.lib uuid.lib odbc32.lib odbccp32.lib /MANIFEST /ManifestFile:"Release\SFML Test 2.exe.intermediate.manifest" /MANIFESTUAC:"level='asInvoker' uiAccess='false'" /DEBUG /PDB:"D:\GitLab\Boulders\Release\SFML Test 2.pdb" /SUBSYSTEM:CONSOLE /OPT:REF /OPT:ICF /LTCG /TLBID:1 /DYNAMICBASE /NXCOMPAT /IMPLIB:"D:\GitLab\Boulders\Release\SFML Test 2.lib" /MACHINE:X86 Release\Test.obj
^D:\GITLAB\SOKOBAN GAME SFML\SFML TEST 2\RELEASE\TEST.OBJ
/ERRORREPORT:PROMPT /OUT:"D:\GitLab\Sokoban Game SFML\Release\SFML Test 2.exe" /INCREMENTAL:NO /NOLOGO "sfml-graphics.lib" "sfml-window.lib" "sfml-system.lib" kernel32.lib user32.lib gdi32.lib winspool.lib comdlg32.lib advapi32.lib shell32.lib ole32.lib oleaut32.lib uuid.lib odbc32.lib odbccp32.lib /MANIFEST /ManifestFile:"Release\SFML Test 2.exe.intermediate.manifest" /MANIFESTUAC:"level='asInvoker' uiAccess='false'" /DEBUG /PDB:"D:\GitLab\Sokoban Game SFML\Release\SFML Test 2.pdb" /SUBSYSTEM:CONSOLE /OPT:REF /OPT:ICF /LTCG /TLBID:1 /DYNAMICBASE /NXCOMPAT /IMPLIB:"D:\GitLab\Sokoban Game SFML\Release\SFML Test 2.lib" /MACHINE:X86 Release\Test.obj
