^E:\MATERI KULIAH\ALGORITMA DAN PEMROGRAMAN\C++\SFML TEST 2\SFML TEST 2\RELEASE\TEST.OBJ
E:\MATERI KULIAH\ALGORITMA DAN PEMROGRAMAN\C++\SFML TEST 2\RELEASE\SFML TEST 2.EXE
E:\MATERI KULIAH\ALGORITMA DAN PEMROGRAMAN\C++\SFML TEST 2\SFML TEST 2\RELEASE\SFML TEST 2.EXE.INTERMEDIATE.MANIFEST
E:\MATERI KULIAH\ALGORITMA DAN PEMROGRAMAN\C++\SFML TEST 2\RELEASE\SFML TEST 2.PDB
^D:\GITLAB\BOULDERS\SFML TEST 2\RELEASE\TEST.OBJ
D:\GITLAB\BOULDERS\RELEASE\SFML TEST 2.EXE
D:\GITLAB\BOULDERS\SFML TEST 2\RELEASE\SFML TEST 2.EXE.INTERMEDIATE.MANIFEST
D:\GITLAB\BOULDERS\RELEASE\SFML TEST 2.PDB
^D:\GITLAB\SOKOBAN GAME SFML\SFML TEST 2\RELEASE\TEST.OBJ
D:\GITLAB\SOKOBAN GAME SFML\RELEASE\SFML TEST 2.EXE
D:\GITLAB\SOKOBAN GAME SFML\SFML TEST 2\RELEASE\SFML TEST 2.EXE.INTERMEDIATE.MANIFEST
D:\GITLAB\SOKOBAN GAME SFML\RELEASE\SFML TEST 2.PDB
