^E:\MATERI KULIAH\ALGORITMA DAN PEMROGRAMAN\C++\SFML TEST 2\SFML TEST 2\TEST.CPP
E:\MATERI KULIAH\ALGORITMA DAN PEMROGRAMAN\C++\SFML TEST 2\SFML TEST 2\DEBUG\TEST.OBJ
E:\MATERI KULIAH\ALGORITMA DAN PEMROGRAMAN\C++\SFML TEST 2\SFML TEST 2\DEBUG\VC100.PDB
